^C:\USERS\USER\DOCUMENTS\VISUAL STUDIO 2017\PROJECTS\VOXELMATCHINGV2\VOXELMATCHINGV2\JSONCPP.CPP
/c /ZI /nologo /W3 /WX- /diagnostics:classic /Od /Oy- /D WIN32 /D _DEBUG /D _CONSOLE /D _UNICODE /D UNICODE /Gm /EHsc /RTC1 /MDd /GS /fp:precise /Zc:wchar_t /Zc:forScope /Zc:inline /Fo"DEBUG\\" /Fd"DEBUG\VC141.PDB" /Gd /TP /analyze- C:\USERS\USER\DOCUMENTS\VISUAL STUDIO 2017\PROJECTS\VOXELMATCHINGV2\VOXELMATCHINGV2\JSONCPP.CPP
^C:\USERS\USER\DOCUMENTS\VISUAL STUDIO 2017\PROJECTS\VOXELMATCHINGV2\VOXELMATCHINGV2\MAIN.CPP
/c /ZI /nologo /W3 /WX- /diagnostics:classic /Od /Oy- /D WIN32 /D _DEBUG /D _CONSOLE /D _UNICODE /D UNICODE /Gm /EHsc /RTC1 /MDd /GS /fp:precise /Zc:wchar_t /Zc:forScope /Zc:inline /Fo"DEBUG\\" /Fd"DEBUG\VC141.PDB" /Gd /TP /analyze- C:\USERS\USER\DOCUMENTS\VISUAL STUDIO 2017\PROJECTS\VOXELMATCHINGV2\VOXELMATCHINGV2\MAIN.CPP
^C:\USERS\USER\DOCUMENTS\VISUAL STUDIO 2017\PROJECTS\VOXELMATCHINGV2\VOXELMATCHINGV2\ROOM.CPP
/c /ZI /nologo /W3 /WX- /diagnostics:classic /Od /Oy- /D WIN32 /D _DEBUG /D _CONSOLE /D _UNICODE /D UNICODE /Gm /EHsc /RTC1 /MDd /GS /fp:precise /Zc:wchar_t /Zc:forScope /Zc:inline /Fo"DEBUG\\" /Fd"DEBUG\VC141.PDB" /Gd /TP /analyze- C:\USERS\USER\DOCUMENTS\VISUAL STUDIO 2017\PROJECTS\VOXELMATCHINGV2\VOXELMATCHINGV2\ROOM.CPP
^C:\USERS\USER\DOCUMENTS\VISUAL STUDIO 2017\PROJECTS\VOXELMATCHINGV2\VOXELMATCHINGV2\SERVER.CPP
/c /ZI /nologo /W3 /WX- /diagnostics:classic /Od /Oy- /D WIN32 /D _DEBUG /D _CONSOLE /D _UNICODE /D UNICODE /Gm /EHsc /RTC1 /MDd /GS /fp:precise /Zc:wchar_t /Zc:forScope /Zc:inline /Fo"DEBUG\\" /Fd"DEBUG\VC141.PDB" /Gd /TP /analyze- C:\USERS\USER\DOCUMENTS\VISUAL STUDIO 2017\PROJECTS\VOXELMATCHINGV2\VOXELMATCHINGV2\SERVER.CPP
^C:\USERS\USER\DOCUMENTS\VISUAL STUDIO 2017\PROJECTS\VOXELMATCHINGV2\VOXELMATCHINGV2\UDPSOCKET.CPP
/c /ZI /nologo /W3 /WX- /diagnostics:classic /Od /Oy- /D WIN32 /D _DEBUG /D _CONSOLE /D _UNICODE /D UNICODE /Gm /EHsc /RTC1 /MDd /GS /fp:precise /Zc:wchar_t /Zc:forScope /Zc:inline /Fo"DEBUG\\" /Fd"DEBUG\VC141.PDB" /Gd /TP /analyze- C:\USERS\USER\DOCUMENTS\VISUAL STUDIO 2017\PROJECTS\VOXELMATCHINGV2\VOXELMATCHINGV2\UDPSOCKET.CPP
